[0]	0	0	
[487,09030239]	487.09030239	7842000	
[731,00513051]	731.005130513	10305000	
[934,97054003]	934.970540031	11609000	
[1126,32240373]	1126.322403728	12152000	
[1310,78886104]	1310.788861038	12370000	
[1489,18641779]	1489.186417785	12654000	
[1656,11570148]	1656.115701482	12978000	
[1816,24368443]	1816.24368443	13281000	
[1972,01321937]	1972.013219372	13533000	
[2122,10761502]	2122.10761502	13827000	
[2268,23034747]	2268.230347473	14089000	
[2411,59427239]	2411.594272387	14211000	
[2552,02999186]	2552.02999186	14476000	
[2689,32696961]	2689.326969606	14721000	
[2823,36559766]	2823.365597663	15025000	
[2954,26675154]	2954.266751542	15218000	
[3083,29662002]	3083.296620024	15424000	
[3209,04172321]	3209.041723209	15574000	
[3332,50209882]	3332.502098822	15796000	
